<?xml version="1.0" encoding="UTF-8"?>
<svg width="12px" height="12px" viewBox="0 0 12 12" version="1.1" xmlns="http://www.w3.org/2000/svg" xmlns:xlink="http://www.w3.org/1999/xlink">
    <!-- Generator: Sketch 56.3 (81716) - https://sketch.com -->
    <title>cancel-icon</title>
    <desc>Created with Sketch.</desc>
    <g id="Share-Numbers-+-block-element" stroke="none" stroke-width="1" fill="none" fill-rule="evenodd">
        <g id="block-element" transform="translate(-251.000000, -1283.000000)" fill="#585858" fill-rule="nonzero">
            <g id="bubble" transform="translate(110.000000, 903.000000)">
                <g id="Group-7" transform="translate(16.000000, 286.000000)">
                    <g id="Report-Issue" transform="translate(16.000000, 80.000000)">
                        <g id="Group-7" transform="translate(109.000000, 12.000000)">
                            <path d="M2.84192343,11.8966299 C3.70385872,12.6019746 4.80565421,13.0251572 6.00628931,13.0251572 C8.76771306,13.0251572 11.0062893,10.786581 11.0062893,8.02515723 C11.0062893,6.82452213 10.5831067,5.72272664 9.87776197,4.86079135 L2.84192343,11.8966299 Z M2.13481665,11.1895231 L9.17065519,4.15368457 C8.3087199,3.44833988 7.20692441,3.02515723 6.00628931,3.02515723 C3.24486556,3.02515723 1.00628931,5.26373348 1.00628931,8.02515723 C1.00628931,9.22579233 1.42947195,10.3275878 2.13481665,11.1895231 Z M6.00628931,14.0251572 C2.69258081,14.0251572 0.00628930818,11.3388657 0.00628930818,8.02515723 C0.00628930818,4.71144873 2.69258081,2.02515723 6.00628931,2.02515723 C9.31999781,2.02515723 12.0062893,4.71144873 12.0062893,8.02515723 C12.0062893,11.3388657 9.31999781,14.0251572 6.00628931,14.0251572 Z" id="cancel-icon"></path>
                        </g>
                    </g>
                </g>
            </g>
        </g>
    </g>
</svg>