<?xml version="1.0" encoding="UTF-8"?>
<svg width="11px" height="12px" viewBox="0 0 11 12" version="1.1" xmlns="http://www.w3.org/2000/svg" xmlns:xlink="http://www.w3.org/1999/xlink">
    <!-- Generator: Sketch 55.2 (78181) - https://sketchapp.com -->
    <title>share-icon</title>
    <desc>Created with Sketch.</desc>
    <g id="Share-Numbers-+-block-element" stroke="none" stroke-width="1" fill="none" fill-rule="evenodd">
        <g id="01-share" transform="translate(-125.000000, -432.000000)" fill="#0797E1" fill-rule="nonzero">
            <g id="D" transform="translate(27.000000, 34.000000)">
                <g id="Stats" transform="translate(0.000000, 255.000000)">
                    <g id="Group" transform="translate(15.714286, 56.285714)">
                        <path d="M91.029782,94.2381831 C90.4041879,94.2381831 89.8523755,94.5337047 89.4918574,94.986256 L86.1479681,93.2906692 C86.1917446,93.1287789 86.223209,92.961508 86.223209,92.7854656 C86.223209,92.5938242 86.1858393,92.413396 86.1336951,92.2378283 L89.4628327,90.5500635 C89.8213671,91.023097 90.3874525,91.3322734 91.0302608,91.3322734 C92.1191567,91.3322734 93,90.4588886 93,89.380185 C93,88.3024536 92.1191567,87.4285714 91.0302836,87.4285714 C89.9438502,87.4285714 89.0620265,88.3024536 89.0620265,89.3801624 C89.0620265,89.5567022 89.0935137,89.7244478 89.137769,89.8868355 L85.7943585,91.5824223 C85.4333616,91.1293962 84.880546,90.8329025 84.2539714,90.8329025 C83.166056,90.8329025 82.2857143,91.7072594 82.2857143,92.7854656 C82.2857143,93.8636718 83.1660788,94.737554 84.2539714,94.737554 C84.8977602,94.737554 85.4633668,94.4274055 85.8233604,93.9538972 L89.151016,95.641662 C89.0988718,95.8167323 89.0610233,95.99863 89.0610233,96.1907688 C89.0610233,97.268975 89.942847,98.1428571 91.0292804,98.1428571 C92.1181763,98.1428571 92.9990196,97.268975 92.9990196,96.1907688 C92.9995212,95.1115905 92.1186779,94.2381831 91.029782,94.2381831 Z" id="share-icon" transform="translate(87.642857, 92.785714) scale(1, -1) translate(-87.642857, -92.785714) "></path>
                    </g>
                </g>
            </g>
        </g>
    </g>
</svg>