<svg xmlns="http://www.w3.org/2000/svg" viewBox="0 0 26 26">
  <defs>
    <style>
      .cls-1 {
        fill: #fff;
      }
    </style>
  </defs>
  <g id="icon-facebook" transform="translate(0)">
    <path id="Path_202" data-name="Path 202" class="cls-1" d="M24.564,0H1.435A1.435,1.435,0,0,0,0,1.436V24.565A1.436,1.436,0,0,0,1.435,26H13.887V15.932H10.5V12.008h3.388V9.114c0-3.358,2.05-5.187,5.046-5.187a28.1,28.1,0,0,1,3.027.154v3.51H19.882c-1.629,0-1.943.774-1.943,1.91v2.5h3.886l-.508,3.924H17.939V26h6.625A1.436,1.436,0,0,0,26,24.565V1.435A1.435,1.435,0,0,0,24.564,0Z" transform="translate(0 -0.001)"/>
  </g>
</svg>
